%YAML 1.1
%TAG !u! tag:unity3d.com,2011:
--- !u!1045 &1
EditorBuildSettings:
  m_ObjectHideFlags: 0
  serializedVersion: 2
  m_Scenes:
  - enabled: 1
    path: Assets/Scenes/MainMenu.unity
    guid: 958effa7f3afe2145b74a9695415e17c
  - enabled: 1
    path: Assets/Scenes/GameOnline.unity
    guid: 2cda990e2423bbf4892e6590ba056729
  - enabled: 1
    path: Assets/Scenes/GameOffline.unity
    guid: d45bafa984228464886e1a411c267d8d
  m_configObjects: {}
